{
	"messages": [
		"wikibase-edit",
		"wikibase-aliases-separator",
		"wikibase-entitytermsforlanguagelistview-more",
		"wikibase-entitytermsview-entitytermsforlanguagelistview-toggler",
		"wikibase-label-empty",
		"wikibase-description-empty"
	]
}
